"VertexlitGeneric"
{
    "$basetexture" "models/jorj/whittaker/whittaker_pillar_white"
    "$surfaceprop" "Wood"
    "$nodecal" "1"
        	"$envmap" "models/jorj/whittaker/environment"
	"$envmaptint" "[0.05 0.05 0.05]"
    "$selfillum" "1"
    "$selfillummask" "models/jorj/whittaker/whittaker_pillar_white"
        "$bumpmap" "models/jorj/whittaker/whittaker_pillar_bump"
            "$color2" "[0 1 0]"
            
            	$phong 					1
	$phongexponent 			3
	$phongboost 			1
	$phongtint 				"[1 1 0]"
	$phongfresnelranges 	"[0.2 0.2 0.2]"
}