"VertexlitGeneric"
{
    "$basetexture" "models/jorj/whittaker/whittaker_platform1hex_green"
    "$surfaceprop" "Wood"
    "$nodecal" "1"
        	"$envmap" "models/jorj/whittaker/environment"
	"$envmaptint" "[0.2 0.2 0.2]"
            "$selfillum" "2"
        "$selfillummask" "models/jorj/whittaker/whittaker_platform1hex_green"
                    	// LIGHT ANIMATION
	$sine                       0
	Proxies
	{

		Sine
		{
			sineperiod          4
			sinemin             0.3
			sinemax             2.25
			resultVar           $sine
			timeoffset		2
		}

		Equals
		{
			srcVar1             $sine
			resultVar           "$selfillumtint[1]"
		}

		Equals
		{
			srcVar1             $sine
			resultVar           "$selfillumtint[2]"
		}

		Equals
		{
			srcVar1             $sine
			resultVar           "$selfillumtint[0]"
		}

	}
}