"VertexlitGeneric"
{
    "$basetexture" "models/jorj/whittaker/whittaker_pillar_s11"
    "$surfaceprop" "Wood"
    "$nodecal" "1"
        	"$envmap" "models/jorj/whittaker/environment"
	"$envmaptint" "[0.1 0.1 0.1]"
    "$selfillum" "1"
    "$selfillummask" "models/jorj/whittaker/whittaker_pillar_s11"
    "$bumpmap" "models/jorj/whittaker/whittaker_pillar_bump"
	"$surfaceprop" "Glass"
	"$translucent" 1
	"$nodecal" "1"

	$phong 					1
	$phongexponent 			3
	$phongboost 			0.3
	$phongtint 				"[1 1 1]"
	$phongfresnelranges 	"[0 1 1]"
}