"VertexlitGeneric"
{
    "$basetexture" "models/jorj/whittaker/whittaker_pillarbase_white"
    "$surfaceprop" "Wood"
    "$nodecal" "1"
        	"$envmap" "models/jorj/whittaker/environment"
	"$envmaptint" "[0.2 0.2 0.2]"
    "$selfillum" "1"
    "$selfillummask" "models/jorj/whittaker/whittaker_red"
        	// LIGHT ANIMATION
	$sine                       0
	Proxies
	{

		Sine
		{
			sineperiod          2
			sinemin             0.3
			sinemax             1.25
			resultVar           $sine
			timeoffset		1
		}

		Equals
		{
			srcVar1             $sine
			resultVar           "$selfillumtint[1]"
		}

		Equals
		{
			srcVar1             $sine
			resultVar           "$selfillumtint[2]"
		}

		Equals
		{
			srcVar1             $sine
			resultVar           "$selfillumtint[0]"
		}

	}
}