"VertexlitGeneric"
{
    "$basetexture" "models/jorj/whittaker/whittaker_pillar_white"
    "$surfaceprop" "Wood"
    "$nodecal" "1"
        	"$envmap" "models/jorj/whittaker/environment"
	"$envmaptint" "[0.2 0.2 0.2]"
    "$selfillum" "1"
    "$selfillummask" "models/jorj/whittaker/whittaker_pillar_white"
        "$bumpmap" "models/jorj/whittaker/whittaker_pillar_bump"
                            "$color2" "[0.2 0.8 3]"
}