"VertexlitGeneric"
{
    "$basetexture" "models/jorj/whittaker/whittaker_platform1hex_off"
    "$surfaceprop" "Wood"
    "$nodecal" "1"
    "$selfillum" "0"
    "$selfillummask" "models/jorj/whittaker/whittaker_consolelight"
    "$selfillumtint" "[0 0 0]"
}