"VertexlitGeneric"
{
    "$basetexture" "models/jorj/whittaker/whittaker_pillar_flux_white"
    "$surfaceprop" "Wood"
    "$nodecal" "1"
        	"$envmap" "models/jorj/whittaker/environment"
	"$envmaptint" "[0.1 0.1 0.1]"
    "$selfillum" "0"
    "$selfillummask" "models/jorj/whittaker/whittaker_pillar_flux_white"
        "$bumpmap" "models/jorj/whittaker/whittaker_pillar_bump_reduced"
}