"VertexlitGeneric"
{
    "$basetexture" "models/jorj/whittaker/whittaker_rotor_off"
    "$surfaceprop" "Wood"
    "$nodecal" "1"
    "$envmap" "models/jorj/whittaker/environment"
    "$envmaptint" "[0.05 0.05 0.05]"
    "$selfillum" "0"
    "$bumpmap" "models/jorj/whittaker/whittaker_rotor_bump"
}