"VertexlitGeneric"
{
    "$basetexture" "models/jorj/whittaker/whittaker_pillar_off"
    "$surfaceprop" "Wood"
    "$nodecal" "1"
    "$envmap" "models/jorj/whittaker/environment"
    "$envmaptint" "[0.05 0.05 0.05]"
    "$bumpmap" "models/jorj/whittaker/whittaker_pillar_bump_reduced"
    "$color2" "[1 1 1]"
}