"VertexlitGeneric"
{
    "$basetexture" "models/jorj/whittaker/whittaker_grey"
    "$surfaceprop" "Wood"
    "$nodecal" "1"
        	"$envmap" "models/jorj/whittaker/environment"
	"$envmaptint" "[0.2 0.2 0.2]"
            "$bumpmap" "models/jorj/whittaker/whittaker_sphere_s13_bump"
}