"VertexlitGeneric"
{
    "$basetexture" "models/jorj/whittaker/whittaker_symbols"
    "$surfaceprop" "Wood"
    "$nodecal" "1"
        	"$envmap" "models/jorj/whittaker/environment"
	"$envmaptint" "[0 0 0]"
}