"VertexlitGeneric"
{
    "$basetexture" "models/jorj/whittaker/whittaker_platform3light_white"
    "$surfaceprop" "Wood"
    "$nodecal" "1"
        	"$envmap" "models/jorj/whittaker/environment"
	"$envmaptint" "[0.1 0.1 0.1]"
            "$bumpmap" "models/jorj/whittaker/whittaker_platform3light_bump"
}