"VertexlitGeneric"
{
    "$basetexture" "models/jorj/whittaker/whittaker_consolemain"
    "$surfaceprop" "Wood"
    "$nodecal" "1"
    	$bumpmap  "models/jorj/whittaker/whittaker_extwood_master_bump"
                	"$envmap" "models/jorj/whittaker/environment"
	"$envmaptint" "[0 0 0]"
}