"VertexlitGeneric"
{
    "$basetexture" "models/jorj/whittaker/whittaker_consolelight"
    "$surfaceprop" "Wood"
    "$nodecal" "1"
            	"$envmap" "models/jorj/whittaker/environment"
	"$envmaptint" "[0.1 0.1 0.1]"
            "$selfillum" "1"
        "$selfillummask" "models/jorj/whittaker/whittaker_consolelight"
    "$bumpmap" "models/jorj/whittaker/whittaker_consolelight_bump"
                                    "$color2" "[1 0.9 1]"
                                
	$phong 					1
	$phongexponent 			1
	$phongboost 			1
	$phongtint 				"[1 0.4 0.4]"
	$phongfresnelranges 	"[1 1 1]"


    	// LIGHT ANIMATION
	$sine                       0
	Proxies
	{

		Sine
		{
			sineperiod          4.5
			sinemin             0.6
			sinemax             1.25
			resultVar           $sine
			timeoffset		1
		}

		Equals
		{
			srcVar1             $sine
			resultVar           "$selfillumtint[1]"
		}

		Equals
		{
			srcVar1             $sine
			resultVar           "$selfillumtint[2]"
		}

		Equals
		{
			srcVar1             $sine
			resultVar           "$selfillumtint[0]"
		}

	}
}