"VertexlitGeneric"
{
    "$basetexture" "models/jorj/whittaker/whittaker_fliplamp_s13"
    "$surfaceprop" "Wood"
    "$nodecal" "1"
        	"$envmap" "models/jorj/whittaker/environment"
	"$envmaptint" "[0.1 0.1 0.1]"
}