"VertexlitGeneric"
{
    "$basetexture" "models/jorj/whittaker/whittaker_rotor_white"
    "$surfaceprop" "Wood"
    "$nodecal" "1"
    "$envmap" "models/jorj/whittaker/environment"
	"$envmaptint" "[0.2 0.2 0.2]"
    "$selfillum" "1"
    "$selfillummask" "models/jorj/whittaker/whittaker_rotor_white"

    $sine                       0
    Proxies
    {
        Sine {
            sineperiod          6
            sinemin             0.6
            sinemax             1.25
            resultVar           $sine
            timeoffset		0
        }
        Equals {
            srcVar1             $sine
            resultVar           "$selfillumtint[1]"
        }
        Equals {
            srcVar1             $sine
            resultVar           "$selfillumtint[2]"
        }
        Equals {
            srcVar1             $sine
            resultVar           "$selfillumtint[0]"
        }
    }
}