"VertexlitGeneric"
{
    "$basetexture" "models/jorj/whittaker/whittaker_rotor_s11"
    "$surfaceprop" "Wood"
    "$nodecal" "1"
	"$envmap" "models/jorj/whittaker/environment"
	"$envmaptint" "[0 0 0]"
    "$selfillum" "1"
    "$selfillummask" "models/jorj/whittaker/whittaker_rotor"
	"$bumpmap" "models/jorj/whittaker/whittaker_rotor_bump"
	"$surfaceprop" "Glass"
	"$translucent" 1
	"$nodecal" "1"

	$phong 					1
	$phongexponent 			6
	$phongboost 			0.5
	$phongtint 				"[1 1 1]"
	$phongfresnelranges 	"[1 0 1]"

	$sine                       0
    Proxies
    {
        Sine {
            sineperiod          6
            sinemin             0.6
            sinemax             1.25
            resultVar           $sine
            timeoffset		0
        }
        Equals {
            srcVar1             $sine
            resultVar           "$selfillumtint[1]"
        }
        Equals {
            srcVar1             $sine
            resultVar           "$selfillumtint[2]"
        }
        Equals {
            srcVar1             $sine
            resultVar           "$selfillumtint[0]"
        }
    }
}