"VertexlitGeneric"
{
    "$basetexture" "models/jorj/whittaker/whittaker_bluehex_lum"
    "$surfaceprop" "Wood"
    "$nodecal" "1"
        	"$envmap" "models/jorj/whittaker/environment"
	"$envmaptint" "[0.2 0.2 0.2]"
            "$selfillum" "2"
        "$selfillummask" "models/jorj/whittaker/whittaker_bluehex_lum"
            "$color2" "[1 0.8 5]"
}