"VertexlitGeneric"
{
    "$basetexture" "models/jorj/whittaker/whittaker_hexcrust_green"
    "$surfaceprop" "Wood"
    "$nodecal" "1"
        	"$envmap" "models/jorj/whittaker/environment"
	"$envmaptint" "[0.3 0.3 0.3]"
        "$bumpmap" "models/jorj/whittaker/whittaker_sphere_s13_bump"
}