"VertexlitGeneric"
{
    "$basetexture" "models/jorj/whittaker/whittaker_stairs_white"
    "$surfaceprop" "Wood"
    "$nodecal" "1"
        	"$envmap" "models/jorj/whittaker/envrironment"
	"$envmaptint" "[0.2 0.2 0.2]"
            "$selfillum" "1"
        "$selfillummask" "models/jorj/whittaker/whittaker_stairs_white"
}