"VertexlitGeneric"
{
    "$basetexture" "models/jorj/whittaker/whittaker_middle"
    "$surfaceprop" "Wood"
    "$nodecal" "1"
        "$selfillum" "2"
        "$selfillummask" "models/jorj/whittaker/whittaker_middle_lum"
}