"VertexlitGeneric"
{
    "$basetexture" "models/jorj/whittaker/whittaker_pillar"
    "$surfaceprop" "Wood"
    "$nodecal" "1"
        	"$envmap" "models/jorj/whittaker/environment"
	"$envmaptint" "[0.2 0.2 0.2]"
    "$selfillum" "1"
    "$selfillummask" "models/jorj/whittaker/whittaker_pillar"
    "$bumpmap" "models/jorj/whittaker/whittaker_pillar_bump"
                                "$color2" "[1.1 0.9 3]"
                                
	$phong 					1
	$phongexponent 			3
	$phongboost 			0.3
	$phongtint 				"[1 1 0]"
	$phongfresnelranges 	"[0.2 0.2 0.2]"
}