"VertexlitGeneric"
{
	"$additive" 1
	"$basetexture" "models/jorj/whittaker/whittaker_platform1hex_pink"
	"$bumpmap" "models/jorj/whittaker/whittaker_hexglass_bump"
	"$surfaceprop" "Glass"
	"$translucent" 0
	"$nodecal" "1"

	$phong 					1
	$phongexponent 			1
	$phongboost 			1
	$phongtint 				"[ 0.8 0.9 0.8 ]"
	$phongfresnelranges 	"[5 5 5]"
}