"VertexlitGeneric"
{
    "$basetexture" "models/jorj/whittaker/whittaker_consolelight_white"
    "$surfaceprop" "Wood"
    "$nodecal" "1"
            	"$envmap" "models/jorj/whittaker/environment"
	"$envmaptint" "[0.3 0.3 0.3]"
            "$selfillum" "1"
        "$selfillummask" "models/jorj/whittaker/whittaker_consolelight_white"
            "$bumpmap" "models/jorj/whittaker/whittaker_consolelight_bump"
            "$color2" "[0.3 0.8 3]"
}