"VertexlitGeneric"
{
    "$basetexture" "models/jorj/whittaker/whittaker_window"
    "$surfaceprop" "Wood"
    "$nodecal" "1"
    "$envmap" "models/jorj/whittaker/environment"
	"$envmaptint" "[0.01 0.01 0.01]"
}