"VertexlitGeneric"
{
    "$basetexture" "models/jorj/whittaker/whittaker_bluehall"
    "$surfaceprop" "Wood"
    "$nodecal" "1"
        	"$envmap" "models/jorj/whittaker/environment"
	"$envmaptint" "[0.2 0.2 0.2]"
            "$selfillum" "2"
        "$selfillummask" "models/jorj/whittaker/whittaker_bluehall"
                                    "$color2" "[0.3 1 4]"
}