"VertexlitGeneric"
{
    "$basetexture" "models/jorj/whittaker/whittaker_hexagon"
    "$surfaceprop" "Wood"
    "$nodecal" "1"
        	"$envmap" "models/jorj/whittaker/environment"
	"$envmaptint" "[0.15 0.15 0.15]"
}