"VertexlitGeneric"
{
    "$basetexture" "models/jorj/whittaker/whittaker_pillar_flux"
    "$surfaceprop" "Wood"
    "$nodecal" "1"
        	"$envmap" "models/jorj/whittaker/environment"
	"$envmaptint" "[0.05 0.05 0.05]"
    "$selfillum" "1"
    "$selfillummask" "models/jorj/whittaker/whittaker_pillar_flux"
    "$selfillumtint" "[1 0.1 1]"
        "$bumpmap" "models/jorj/whittaker/whittaker_pillar_bump"
        	$phongexponent 			3
	$phongboost 			1
	$phongtint 				"[1 0.5 0]"
	$phongfresnelranges 	"[0.2 0.2 0.2]"
    	"$envmaptint" "[0.05 0.05 0.05]"
}