"VertexlitGeneric"
{
    "$basetexture" "models/jorj/whittaker/whittaker_platform3light_pink"
    "$surfaceprop" "Wood"
    "$nodecal" "1"
        	"$envmap" "models/jorj/whittaker/environment"
	"$envmaptint" "[0.2 0.2 0.2]"
            "$selfillum" "2"
        "$selfillummask" "models/jorj/whittaker/whittaker_platform3light_pink"
            "$bumpmap" "models/jorj/whittaker/whittaker_platform3light_bump"
}