"VertexlitGeneric"
{
    "$basetexture" "models/jorj/whittaker/whittaker_pillarbase_s11_white"
    "$surfaceprop" "Wood"
    "$nodecal" "1"
        	"$envmap" "models/jorj/whittaker/environment"
	"$envmaptint" "[0.2 0.2 0.2]"
    "$selfillum" "1"
    "$selfillummask" "models/jorj/whittaker/whittaker_pillarbase_s11_white"
"$color2" "[0.3 0.8 3]"
}