"VertexlitGeneric"
{
    "$basetexture" "models/jorj/whittaker/whittaker_hexcrust_blue"
    "$surfaceprop" "Wood"
    "$nodecal" "1"
        	"$envmap" "models/jorj/whittaker/environment"
	"$envmaptint" "[0.2 0.2 0.2]"
            "$selfillum" "0"
        "$selfillummask" "models/jorj/whittaker/whittaker_hexcrust"
}