"VertexlitGeneric"
{
    "$basetexture" "models/jorj/whittaker/whittaker_rotor_white"
    "$surfaceprop" "Wood"
    "$nodecal" "1"
        	"$envmap" "models/jorj/whittaker/environment"
	"$envmaptint" "[0.2 0.2 0.2]"
    "$selfillum" "1"
    "$selfillummask" "models/jorj/whittaker/whittaker_rotor_white"
                          "$color2" "[1 0.3 1]"
}