"VertexlitGeneric"
{
    "$basetexture" "models/jorj/whittaker/whittaker_grey"
    "$surfaceprop" "Wood"
    "$nodecal" "1"
            	"$envmap" "models/jorj/whittaker/environment"
	"$envmaptint" "[0.1 0.3 0.3]"
            "$selfillum" "1"
        "$selfillummask" "models/jorj/whittaker/whittaker_grey"
}