"VertexlitGeneric"
{
    "$basetexture" "models/jorj/whittaker/whittaker_rotor_white"
    "$surfaceprop" "Wood"
    "$nodecal" "1"
    "$envmap" "models/jorj/whittaker/environment"
	"$envmaptint" "[0.2 0.2 0.2]"
    "$selfillum" "1"
    "$selfillummask" "models/jorj/whittaker/whittaker_rotor_white"
    "$selfillumtint" "[1.2 0.08 0.01]"


    Proxies
    {
        Sine {
            sineperiod          1
            sinemin             0.08
            sinemax             0.2
            resultVar           "$selfillumtint[1]"
            timeoffset          0
        }
    }
}