"VertexlitGeneric"
{
    "$basetexture" "models/jorj/whittaker/whittaker_pillar"
    "$surfaceprop" "Wood"
    "$nodecal" "1"
    "$envmap" "models/jorj/whittaker/environment"
    "$envmaptint" "[0.2 0.2 0.2]"
    "$selfillum" "1"
    "$selfillummask" "models/jorj/whittaker/whittaker_pillar"
    "$selfillumtint" "[1 0.1 0.4]"
    "$bumpmap" "models/jorj/whittaker/whittaker_pillar_bump"
}